{
  "data": [
    {
      "code": "P111",
      "name": "A Game of Thrones",
      "description": "Here is the first volume in George R. R. Martin’s magnificent cycle of novels that includes A Clash of Kings and A Storm of Swords.",
      "image_url": "https://images.gr-assets.com/books/1436732693l/13496.jpg",
      "price": 32.0
    },
    {
      "code": "P110",
      "name": "A Thousand Splendid Suns",
      "description": "A Thousand Splendid Suns is a breathtaking story set against the volatile events of Afghanistan's last thirty years—from the Soviet invasion to the reign of the Taliban to post-Taliban rebuilding—that puts the violence, fear, hope, and faith of this country in intimate, human terms.",
      "image_url": "https://images.gr-assets.com/books/1345958969l/128029.jpg",
      "price": 15.50
    },
    {
      "code": "P108",
      "name": "Charlotte's Web",
      "description": "This beloved book by E. B. White, author of Stuart Little and The Trumpet of the Swan, is a classic of children's literature",
      "image_url": "https://images.gr-assets.com/books/1439632243l/24178.jpg",
      "price": 14.0
    },
    {
      "code": "P114",
      "name": "Fifty Shades of Grey",
      "description": "When literature student Anastasia Steele goes to interview young entrepreneur Christian Grey, she encounters a man who is beautiful, brilliant, and intimidating.",
      "image_url": "https://images.gr-assets.com/books/1385207843l/10818853.jpg",
      "price": 27.0
    },
    {
      "code": "P103",
      "name": "Gone with the Wind",
      "description": "Gone with the Wind is a novel written by Margaret Mitchell, first published in 1936.",
      "image_url": "https://images.gr-assets.com/books/1328025229l/18405.jpg",
      "price": 44.50
    },
    {
      "code": "P113",
      "name": "One Flew Over the Cuckoo's Nest",
      "description": "Tyrannical Nurse Ratched rules her ward in an Oregon State mental hospital with a strict and unbending routine, unopposed by her patients, who remain cowed by mind-numbing medication and the threat of electric shock therapy.",
      "image_url": "https://images.gr-assets.com/books/1516211014l/332613.jpg",
      "price": 23.0
    },
    {
      "code": "P107",
      "name": "The Alchemist",
      "description": "Paulo Coelho's masterpiece tells the mystical story of Santiago, an Andalusian shepherd boy who yearns to travel in search of a worldly treasure",
      "image_url": "https://images.gr-assets.com/books/1483412266l/865.jpg",
      "price": 12.0
    },
    {
      "code": "P112",
      "name": "The Book Thief",
      "description": "Nazi Germany. The country is holding its breath. Death has never been busier, and will be busier still.By her brother's graveside, Liesel's life is changed when she picks up a single object, partially hidden in the snow.",
      "image_url": "https://images.gr-assets.com/books/1522157426l/19063.jpg",
      "price": 30.0
    },
    {
      "code": "P102",
      "name": "The Chronicles of Narnia",
      "description": "Journeys to the end of the world, fantastic creatures, and epic battles between good and evil—what more could any reader ask for in one book?...",
      "image_url": "https://images.gr-assets.com/books/1449868701l/11127.jpg",
      "price": 44.50
    },
    {
      "code": "P106",
      "name": "The Da Vinci Code",
      "description": "An ingenious code hidden in the works of Leonardo da Vinci.A desperate race through the cathedrals and castles of Europe",
      "image_url": "https://images.gr-assets.com/books/1303252999l/968.jpg",
      "price": 14.50
    }
  ],
  "totalElements": 15,
  "pageNumber": 1,
  "totalPages": 2,
  "isFirst": true,
  "isLast": false,
  "hasNext": true,
  "hasPrevious": false
}